GunViolence data
…
gundata_clean <- gundata.r %>%
  select(-"...1", -"male")%>%
  rename("%Black" = "afam",
         "%White"= "cauc",
         "Crime/100k" = "violent",
         "Murder/100k" = "murder",
         "Robbery/100k" = "robbery",
         "Prisoners/100k" = "prisoners",
         "Income/capitaofstate" = "income",
         "Density(sqrmi/1000)" = "density",
          ShallCarryLaw = "law",
         "population/mil" = population)
gundata_clean

## # A tibble: 1,173 x 12
##     year Crime~1 Murde~2 Robbe~3 Priso~4 %Blac~5 %Whit~6 popul~7 Incom~8 Densi~9
##    <dbl>   <dbl>   <dbl>   <dbl>   <dbl>   <dbl>   <dbl>   <dbl>   <dbl>   <dbl>
##  1  1977    414.    14.2    96.8      83    8.38    55.1    3.78   9563.  0.0746
##  2  1978    419.    13.3    99.1      94    8.35    55.1    3.83   9932   0.0756
##  3  1979    413.    13.2   110.      144    8.33    55.1    3.87   9877.  0.0762
##  4  1980    448.    13.2   132.      141    8.41    54.9    3.90   9541.  0.0768
##  5  1981    470.    11.9   126.      149    8.48    54.9    3.92   9548.  0.0772
##  6  1982    448.    10.6   112       183    8.51    54.9    3.93   9479.  0.0773
##  7  1983    416      9.2    98.4     215    8.55    54.8    3.93   9783   0.0775
##  8  1984    431.     9.4    96.1     243    8.56    54.8    3.95  10357.  0.0778
##  9  1985    458.     9.8   105.      256    8.56    54.7    3.97  10726.  0.0782
## 10  1986    558     10.1   112.      267    8.57    54.5    3.99  11092.  0.0786
## # ... with 1,163 more rows, 2 more variables: state <chr>, ShallCarryLaw <chr>,
## #   and abbreviated variable names 1: `Crime/100k`, 2: `Murder/100k`,
## #   3: `Robbery/100k`, 4: `Prisoners/100k`, 5: `%Black`, 6: `%White`,
## #   7: `population/mil`, 8: `Income/capitaofstate`, 9: `Density(sqrmi/1000)`
…
Wide data Transformed

We will now transform the data to get a representation of state vs
Crime rate

gunstate<- gundata_clean%>%
  select(1,2,11)
gunstate

## # A tibble: 1,173 x 3
##     year `Crime/100k` state  
##    <dbl>        <dbl> <chr>  
##  1  1977         414. Alabama
##  2  1978         419. Alabama
##  3  1979         413. Alabama
##  4  1980         448. Alabama
##  5  1981         470. Alabama
##  6  1982         448. Alabama
##  7  1983         416  Alabama
##  8  1984         431. Alabama
##  9  1985         458. Alabama
## 10  1986         558  Alabama
## # ... with 1,163 more rows
…
